*** Life<ConwayCell> 7x9 ***

Generation = 0, Population = 18.
...*..*.*
*.*....**
*..*.*...
...*..*..
*..*.....
.*.*.....
..*....*.

Generation = 1, Population = 21.
........*
.****.***
.****.**.
..**.....
...**....
.*.*.....
..*......

Generation = 2, Population = 15.
..**....*
.*..*.*.*
......*.*
.*...*...
....*....
...**....
..*......

Generation = 3, Population = 15.
..**...*.
..**.*..*
......*..
.....*...
...***...
...**....
...*.....

Generation = 4, Population = 19.
..***....
..***.**.
....***..
.....**..
...*.*...
..*..*...
...**....

Generation = 5, Population = 11.
..*.**...
..*...**.
.........
.........
.....*...
..*..*...
...**....

Generation = 6, Population = 10.
...*.**..
...*.**..
.........
.........
.........
...*.*...
...**....

Generation = 7, Population = 7.
.....**..
.....**..
.........
.........
.........
...*.....
...**....

Generation = 8, Population = 8.
.....**..
.....**..
.........
.........
.........
...**....
...**....

Generation = 9, Population = 8.
.....**..
.....**..
.........
.........
.........
...**....
...**....

Generation = 10, Population = 8.
.....**..
.....**..
.........
.........
.........
...**....
...**....

Generation = 11, Population = 8.
.....**..
.....**..
.........
.........
.........
...**....
...**....

Generation = 12, Population = 8.
.....**..
.....**..
.........
.........
.........
...**....
...**....

Generation = 13, Population = 8.
.....**..
.....**..
.........
.........
.........
...**....
...**....

Generation = 14, Population = 8.
.....**..
.....**..
.........
.........
.........
...**....
...**....

Generation = 15, Population = 8.
.....**..
.....**..
.........
.........
.........
...**....
...**....

Generation = 16, Population = 8.
.....**..
.....**..
.........
.........
.........
...**....
...**....

Generation = 17, Population = 8.
.....**..
.....**..
.........
.........
.........
...**....
...**....

Generation = 18, Population = 8.
.....**..
.....**..
.........
.........
.........
...**....
...**....

Generation = 19, Population = 8.
.....**..
.....**..
.........
.........
.........
...**....
...**....

Generation = 20, Population = 8.
.....**..
.....**..
.........
.........
.........
...**....
...**....

Generation = 21, Population = 8.
.....**..
.....**..
.........
.........
.........
...**....
...**....

Generation = 22, Population = 8.
.....**..
.....**..
.........
.........
.........
...**....
...**....

Generation = 23, Population = 8.
.....**..
.....**..
.........
.........
.........
...**....
...**....

Generation = 24, Population = 8.
.....**..
.....**..
.........
.........
.........
...**....
...**....

Generation = 25, Population = 8.
.....**..
.....**..
.........
.........
.........
...**....
...**....

Generation = 26, Population = 8.
.....**..
.....**..
.........
.........
.........
...**....
...**....

Generation = 27, Population = 8.
.....**..
.....**..
.........
.........
.........
...**....
...**....

Generation = 28, Population = 8.
.....**..
.....**..
.........
.........
.........
...**....
...**....

Generation = 29, Population = 8.
.....**..
.....**..
.........
.........
.........
...**....
...**....

Generation = 30, Population = 8.
.....**..
.....**..
.........
.........
.........
...**....
...**....

Generation = 31, Population = 8.
.....**..
.....**..
.........
.........
.........
...**....
...**....

Generation = 32, Population = 8.
.....**..
.....**..
.........
.........
.........
...**....
...**....

Generation = 33, Population = 8.
.....**..
.....**..
.........
.........
.........
...**....
...**....

Generation = 34, Population = 8.
.....**..
.....**..
.........
.........
.........
...**....
...**....

Generation = 35, Population = 8.
.....**..
.....**..
.........
.........
.........
...**....
...**....

Generation = 36, Population = 8.
.....**..
.....**..
.........
.........
.........
...**....
...**....

Generation = 37, Population = 8.
.....**..
.....**..
.........
.........
.........
...**....
...**....

Generation = 38, Population = 8.
.....**..
.....**..
.........
.........
.........
...**....
...**....

*** Life<ConwayCell> 11x12 ***

Generation = 0, Population = 20.
...........*
.*...*......
.**...*.....
..........*.
.....*......
*..........*
......*.....
*......*..*.
......**....
..*..*...*..
...........*

Generation = 8, Population = 15.
............
.**.........
.**.........
............
............
............
.....***....
.....*..*...
....*...*...
.....*..*...
.....*.*....

*** Life<ConwayCell> 8x6 ***

Generation = 0, Population = 17.
**.**.
...**.
*.**..
**..*.
**....
..**..
*.....
......

Generation = 4, Population = 10.
......
..*...
.*.*..
**.**.
***...
......
......
......

Generation = 8, Population = 14.
.***..
*..*..
*..**.
*.***.
**....
......
......
......

Generation = 12, Population = 16.
.**...
*.*...
*.**..
*.**..
*...*.
.***..
..*...
......

Generation = 16, Population = 10.
......
**....
..*...
......
...**.
......
*...*.
.***..

Generation = 20, Population = 6.
......
......
......
...**.
......
..*..*
....*.
...*..

Generation = 24, Population = 0.
......
......
......
......
......
......
......
......

Generation = 28, Population = 0.
......
......
......
......
......
......
......
......

Generation = 32, Population = 0.
......
......
......
......
......
......
......
......

*** Life<ConwayCell> 8x12 ***

Generation = 0, Population = 22.
..*.........
*.**......*.
.....*......
*.....*.....
......*....*
**.**.*.***.
........*...
.*......**..

Generation = 13, Population = 5.
............
............
............
............
....**......
...*........
....**......
............

Generation = 26, Population = 0.
............
............
............
............
............
............
............
............

Generation = 39, Population = 0.
............
............
............
............
............
............
............
............

*** Life<ConwayCell> 9x4 ***

Generation = 0, Population = 16.
**..
*..*
*...
.*.*
**..
*...
...*
.*.*
***.

Generation = 14, Population = 9.
.*..
*.*.
**..
....
....
....
....
.**.
.**.

*** Life<ConwayCell> 12x11 ***

Generation = 0, Population = 18.
.........*.
...........
*.........*
...*.*...*.
...*....**.
.*.*.*.....
..........*
...........
...........
..........*
.*..*..*.*.
...........

Generation = 22, Population = 4.
...........
...........
...........
...........
...**......
...**......
...........
...........
...........
...........
...........
...........

*** Life<ConwayCell> 4x5 ***

Generation = 0, Population = 14.
*.***
.*.*.
*..**
*****

Generation = 33, Population = 9.
****.
*..*.
*.*..
.*...

*** Life<ConwayCell> 10x9 ***

Generation = 0, Population = 19.
.........
........*
.*.*.*...
*...*.*..
*....*...
**.*.....
.....*...
...*.**.*
...*.*...
.........

Generation = 5, Population = 17.
.........
.........
...**....
....*....
.**......
*.....*..
*....***.
.*.*...*.
....***..
.........

Generation = 10, Population = 19.
.........
.........
...*.....
..**.....
.**....*.
*......*.
**.*.....
.......*.
...*..**.
....****.

Generation = 15, Population = 16.
.........
..*......
.**......
*........
..**.....
..**.....
..*......
*.***....
.*...*...
....*....

*** Life<ConwayCell> 12x8 ***

Generation = 0, Population = 21.
.....*..
.**.....
...*....
*.......
**......
......*.
.......*
*.*.*.**
*.....*.
...*..**
.......*
......*.

Generation = 2, Population = 18.
........
.**.....
*.*.....
........
**......
........
.....*.*
..*.**.*
..*..*..
......**
......**
........

Generation = 4, Population = 10.
........
.**.....
..*.....
........
........
........
...*.*..
........
...*....
.....*.*
......**
........

Generation = 6, Population = 8.
........
.**.....
.**.....
........
........
........
........
........
........
......**
......**
........

Generation = 8, Population = 8.
........
.**.....
.**.....
........
........
........
........
........
........
......**
......**
........

Generation = 10, Population = 8.
........
.**.....
.**.....
........
........
........
........
........
........
......**
......**
........

Generation = 12, Population = 8.
........
.**.....
.**.....
........
........
........
........
........
........
......**
......**
........

Generation = 14, Population = 8.
........
.**.....
.**.....
........
........
........
........
........
........
......**
......**
........

*** Life<ConwayCell> 5x4 ***

Generation = 0, Population = 14.
****
.*.*
...*
****
.***

Generation = 12, Population = 4.
....
....
**..
**..
....

Generation = 24, Population = 4.
....
....
**..
**..
....

Generation = 36, Population = 4.
....
....
**..
**..
....

Generation = 48, Population = 4.
....
....
**..
**..
....

*** Life<ConwayCell> 11x8 ***

Generation = 0, Population = 16.
....*...
...*....
.....*.*
**......
*.......
...***..
.....*..
...**...
.......*
........
..*..*..

Generation = 23, Population = 4.
........
........
........
**......
**......
........
........
........
........
........
........

*** Life<ConwayCell> 4x11 ***

Generation = 0, Population = 18.
.**.*.*...*
*..*..*..*.
.*.*.*.*.**
***........

Generation = 37, Population = 4.
...........
**.........
**.........
...........

*** Life<ConwayCell> 12x8 ***

Generation = 0, Population = 17.
........
.**..*..
........
......*.
........
........
..*.....
...*.*..
...*.**.
*....*..
..*.....
*..***..

Generation = 19, Population = 6.
........
........
........
........
........
........
........
........
..*.....
.*.*....
.*.*....
..*.....

*** Life<ConwayCell> 8x12 ***

Generation = 0, Population = 20.
.*..*..*....
..**......*.
..*...*.....
.....*......
.......*....
..*..*.*....
*...........
..*.**..*.**

Generation = 4, Population = 14.
.***........
.*.*........
.***........
............
............
.....*......
...**.**....
.....*......

*** Life<ConwayCell> 10x10 ***

Generation = 0, Population = 17.
.*........
*.**.*....
.....*....
..........
..........
.*........
....**....
.......*..
.***.....*
*..*.*....

Generation = 23, Population = 0.
..........
..........
..........
..........
..........
..........
..........
..........
..........
..........

*** Life<ConwayCell> 9x4 ***

Generation = 0, Population = 16.
....
*...
.***
.*..
*...
**..
**..
*.**
**.*

Generation = 35, Population = 3.
....
....
.*..
.*..
.*..
....
....
....
....

*** Life<ConwayCell> 12x9 ***

Generation = 0, Population = 19.
.....*..*
..*....*.
........*
........*
.**.**.*.
.....*...
.......**
..*....*.
......*..
....*....
.....*...
.........

Generation = 5, Population = 11.
.........
......**.
.......*.
....*..*.
....*.*..
.........
.........
......**.
......**.
.........
.........
.........

Generation = 10, Population = 14.
......*.*
........*
....*...*
.......*.
....**.*.
......*..
.........
......**.
......**.
.........
.........
.........

Generation = 15, Population = 10.
.........
.........
....**...
...*..*..
....**...
.........
.........
......**.
......**.
.........
.........
.........

Generation = 20, Population = 10.
.........
.........
....**...
...*..*..
....**...
.........
.........
......**.
......**.
.........
.........
.........

Generation = 25, Population = 10.
.........
.........
....**...
...*..*..
....**...
.........
.........
......**.
......**.
.........
.........
.........

Generation = 30, Population = 10.
.........
.........
....**...
...*..*..
....**...
.........
.........
......**.
......**.
.........
.........
.........

Generation = 35, Population = 10.
.........
.........
....**...
...*..*..
....**...
.........
.........
......**.
......**.
.........
.........
.........

Generation = 40, Population = 10.
.........
.........
....**...
...*..*..
....**...
.........
.........
......**.
......**.
.........
.........
.........

Generation = 45, Population = 10.
.........
.........
....**...
...*..*..
....**...
.........
.........
......**.
......**.
.........
.........
.........

*** Life<ConwayCell> 8x8 ***

Generation = 0, Population = 15.
.....**.
*.*.*.*.
.....***
..*...*.
........
........
.*..*...
.....*.*

Generation = 39, Population = 0.
........
........
........
........
........
........
........
........

*** Life<ConwayCell> 5x6 ***

Generation = 0, Population = 15.
..**.*
*.****
*....*
.....*
.***.*

Generation = 26, Population = 6.
..*...
.*.*..
.*.*..
..*...
......
